<svg width="12" height="8" viewBox="0 0 12 8" fill="none" xmlns="http://www.w3.org/2000/svg">
<path d="M5.575 7.79584C5.44167 7.79584 5.31233 7.76884 5.187 7.71483C5.06167 7.66083 4.95767 7.58883 4.875 7.49883L0.275 2.53063C0.0916663 2.33262 0 2.08061 0 1.7746C0 1.46859 0.0916663 1.21658 0.275 1.01857C0.458333 0.820561 0.691667 0.721558 0.975 0.721558C1.25833 0.721558 1.49167 0.820561 1.675 1.01857L5.575 5.23074L9.475 1.01857C9.65833 0.820561 9.89167 0.721558 10.175 0.721558C10.4583 0.721558 10.6917 0.820561 10.875 1.01857C11.0583 1.21658 11.15 1.46859 11.15 1.7746C11.15 2.08061 11.0583 2.33262 10.875 2.53063L6.275 7.49883C6.175 7.60683 6.06667 7.68351 5.95 7.72887C5.83333 7.77424 5.70833 7.79656 5.575 7.79584Z" fill="#125893"/>
</svg>
